sdram_controller/transcript
# Reading pref.tcl
# //  Questa Lattice OEM Edition-64
# //  Version 2024.2 win64 May 20 2024
# //
# // Unpublished work. Copyright 2024 Siemens
# //
# // This material contains trade secrets or otherwise confidential information
# // owned by Siemens Industry Software Inc. or its affiliates (collectively,
# // "SISW"), or its licensors. Access to and use of this information is strictly
# // limited as set forth in the Customer's applicable agreements with SISW.
# //
# // This material may not be copied, distributed, or otherwise disclosed outside
# // of the Customer's facilities without the express written permission of SISW,
# // and may not be used in any way not expressly authorized by SISW.
# //
# do {C:/lscc/diamond/projects/SDRAM_controller/sdram_controller/simulation/simulation.mdo}
# Loading project simulation
# vsim -voptargs="+acc" -L work -L pmi_work -L ovi_machxo2 sdram_controller_tb 
# Start time: 12:45:13 on Mar 25,2025
# ** Note: (vsim-8009) Loading existing optimized design _opt
# Loading work.sdram_controller_tb(fast)
# Loading work.sdram_controller(fast)
# .main_pane.wave.interior.cs.body.pw.wf
# Time: 0.000ns, state: xxxxx, command: xxxxxxxx
# Time: 6.667ns, state: 00001, command: 10111000
restart -f
# ** Note: (vsim-12125) Error and warning message counts have been reset to '0' because of 'restart'.
# ** Note: (vsim-8009) Loading existing optimized design _opt
# Loading work.sdram_controller_tb(fast)
# Loading work.sdram_controller(fast)
add wave -position insertpoint  \
sim:/sdram_controller_tb/dut/state
add wave -position insertpoint  \
sim:/sdram_controller_tb/dut/command
restart -f
# ** Note: (vsim-8009) Loading existing optimized design _opt
# Loading work.sdram_controller_tb(fast)
# Loading work.sdram_controller(fast)
run 500us
# Time: 0.000ns, state: xxxxx, command: xxxxxxxx
# Time: 6.667ns, state: 00001, command: 10111000
# Time: 300141.673ns, state: 00011, command: 10010001
# Time: 300155.007ns, state: 00010, command: 10111000
# Time: 300181.675ns, state: 00110, command: 10001000
# Time: 300195.009ns, state: 00111, command: 10111000
# Time: 300261.679ns, state: 00110, command: 10001000
# Time: 300275.013ns, state: 00111, command: 10111000
# Time: 300341.683ns, state: 00110, command: 10001000
# Time: 300355.017ns, state: 00111, command: 10111000
# Time: 300421.687ns, state: 00110, command: 10001000
# Time: 300435.021ns, state: 00111, command: 10111000
# Time: 300501.691ns, state: 00110, command: 10001000
# Time: 300515.025ns, state: 00111, command: 10111000
# Time: 300581.695ns, state: 00110, command: 10001000
# Time: 300595.029ns, state: 00111, command: 10111000
# Time: 300661.699ns, state: 00110, command: 10001000
# Time: 300675.033ns, state: 00111, command: 10111000
# Time: 300741.703ns, state: 00110, command: 10001000
# Time: 300755.037ns, state: 00111, command: 10111000
# Time: 300821.707ns, state: 00101, command: 1000000x
# Time: 300835.041ns, state: 00100, command: 10111000
# Time: 300861.709ns, state: 00000, command: 10111000
# Time: 300875.043ns, state: 01100, command: 10010001
# Time: 300888.377ns, state: 01101, command: 10111000
# Time: 300915.045ns, state: 01111, command: 10001000
# Time: 300928.379ns, state: 01110, command: 10111000
# Time: 300995.049ns, state: 00000, command: 10111000
# Time: 316622.497ns, state: 01100, command: 10010001
# Time: 316635.831ns, state: 01101, command: 10111000
# Time: 316662.499ns, state: 01111, command: 10001000
# Time: 316675.833ns, state: 01110, command: 10111000
# Time: 316742.503ns, state: 00000, command: 10111000
# Time: 332369.951ns, state: 01100, command: 10010001
# Time: 332383.285ns, state: 01101, command: 10111000
# Time: 332409.953ns, state: 01111, command: 10001000
# Time: 332423.287ns, state: 01110, command: 10111000
# Time: 332489.957ns, state: 00000, command: 10111000
# Time: 348117.405ns, state: 01100, command: 10010001
# Time: 348130.739ns, state: 01101, command: 10111000
# Time: 348157.407ns, state: 01111, command: 10001000
# Time: 348170.741ns, state: 01110, command: 10111000
# Time: 348237.411ns, state: 00000, command: 10111000
# Time: 363864.859ns, state: 01100, command: 10010001
# Time: 363878.193ns, state: 01101, command: 10111000
# Time: 363904.861ns, state: 01111, command: 10001000
# Time: 363918.195ns, state: 01110, command: 10111000
# Time: 363984.865ns, state: 00000, command: 10111000
# Time: 379612.313ns, state: 01100, command: 10010001
# Time: 379625.647ns, state: 01101, command: 10111000
# Time: 379652.315ns, state: 01111, command: 10001000
# Time: 379665.649ns, state: 01110, command: 10111000
# Time: 379732.319ns, state: 00000, command: 10111000
# Time: 395359.767ns, state: 01100, command: 10010001
# Time: 395373.101ns, state: 01101, command: 10111000
# Time: 395399.769ns, state: 01111, command: 10001000
# Time: 395413.103ns, state: 01110, command: 10111000
# Time: 395479.773ns, state: 00000, command: 10111000
# Time: 411107.221ns, state: 01100, command: 10010001
# Time: 411120.555ns, state: 01101, command: 10111000
# Time: 411147.223ns, state: 01111, command: 10001000
# Time: 411160.557ns, state: 01110, command: 10111000
# Time: 411227.227ns, state: 00000, command: 10111000
# Time: 426854.675ns, state: 01100, command: 10010001
# Time: 426868.009ns, state: 01101, command: 10111000
# Time: 426894.677ns, state: 01111, command: 10001000
# Time: 426908.011ns, state: 01110, command: 10111000
# Time: 426974.681ns, state: 00000, command: 10111000
# Time: 442602.129ns, state: 01100, command: 10010001
# Time: 442615.463ns, state: 01101, command: 10111000
# Time: 442642.131ns, state: 01111, command: 10001000
# Time: 442655.465ns, state: 01110, command: 10111000
# Time: 442722.135ns, state: 00000, command: 10111000
# Time: 458349.583ns, state: 01100, command: 10010001
# Time: 458362.917ns, state: 01101, command: 10111000
# Time: 458389.585ns, state: 01111, command: 10001000
# Time: 458402.919ns, state: 01110, command: 10111000
# Time: 458469.589ns, state: 00000, command: 10111000
# Time: 474097.037ns, state: 01100, command: 10010001
# Time: 474110.371ns, state: 01101, command: 10111000
# Time: 474137.039ns, state: 01111, command: 10001000
# Time: 474150.373ns, state: 01110, command: 10111000
# Time: 474217.043ns, state: 00000, command: 10111000
# Time: 489844.491ns, state: 01100, command: 10010001
# Time: 489857.825ns, state: 01101, command: 10111000
# Time: 489884.493ns, state: 01111, command: 10001000
# Time: 489897.827ns, state: 01110, command: 10111000
# Time: 489964.497ns, state: 00000, command: 10111000
# Causality operation skipped due to absence of debug database file
