sdram_controller/transcript
# Reading pref.tcl
# //  Questa Lattice OEM Edition-64
# //  Version 2024.2 win64 May 20 2024
# //
# // Unpublished work. Copyright 2024 Siemens
# //
# // This material contains trade secrets or otherwise confidential information
# // owned by Siemens Industry Software Inc. or its affiliates (collectively,
# // "SISW"), or its licensors. Access to and use of this information is strictly
# // limited as set forth in the Customer's applicable agreements with SISW.
# //
# // This material may not be copied, distributed, or otherwise disclosed outside
# // of the Customer's facilities without the express written permission of SISW,
# // and may not be used in any way not expressly authorized by SISW.
# //
# do {C:/lscc/diamond/projects/SDRAM_controller/sdram_controller/simulation/simulation.mdo}
# Loading project simulation
# vsim -voptargs="+acc" -L work -L pmi_work -L ovi_machxo2 sdram_controller_tb 
# Start time: 14:46:04 on Mar 30,2025
# ** Note: (vsim-3813) Design is being optimized due to module recompilation...
# ** Warning: (vopt-10587) Some optimizations are turned off because the +acc switch is in effect. This will cause your simulation to run slowly. Please use -access/-debug to maintain needed visibility. The +acc switch would be deprecated in a future release.
# ** Note: (vopt-143) Recognized 1 FSM in module "sdram_controller(fast)".
# ** Note: (vsim-12126) Error and warning message counts have been restored: Errors=0, Warnings=1.
# Loading work.sdram_controller_tb(fast)
# Loading work.sdram_controller(fast)
# .main_pane.wave.interior.cs.body.pw.wf
# Time: 0.000us, present_state: xxxxx, command: xxxxxxxx
# Time: 0.007us, present_state: 00001, command: 10111000
# Time: 0.140us, present_state: 00011, command: 10010001
# Time: 0.153us, present_state: 00010, command: 10111000
# Compile of sdram_controller.v was successful.
# Compile of sdram_controller_tb.v was successful.
# 2 compiles, 0 failed with no errors.
add wave -position insertpoint  \
sim:/sdram_controller_tb/dut/present_state
add wave -position insertpoint  \
sim:/sdram_controller_tb/dut/command
add wave -position insertpoint  \
sim:/sdram_controller_tb/dut/delay_counter
add wave -position insertpoint  \
sim:/sdram_controller_tb/dut/delay_cycles
restart -f
# ** Note: (vsim-12125) Error and warning message counts have been reset to '0' because of 'restart'.
# ** Note: (vsim-8009) Loading existing optimized design _opt
# ** Note: (vsim-12126) Error and warning message counts have been restored: Errors=0, Warnings=1.
# Loading work.sdram_controller_tb(fast)
# Loading work.sdram_controller(fast)
restart -f
# ** Note: (vsim-12125) Error and warning message counts have been reset to '0' because of 'restart'.
# ** Note: (vsim-8009) Loading existing optimized design _opt
# ** Note: (vsim-12126) Error and warning message counts have been restored: Errors=0, Warnings=1.
# Loading work.sdram_controller_tb(fast)
# Loading work.sdram_controller(fast)
run 500us
# Time: 0.000us, present_state: xxxxx, command: xxxxxxxx
# Time: 0.007us, present_state: 00001, command: 10111000
# Time: 0.140us, present_state: 00011, command: 10010001
# Time: 0.153us, present_state: 00010, command: 10111000
# Time: 320.169us, present_state: 00110, command: 10001000
# Time: 320.183us, present_state: 00111, command: 10111000
# Time: 320.196us, present_state: 00110, command: 10001000
# Time: 320.209us, present_state: 00111, command: 10111000
# Time: 320.276us, present_state: 00110, command: 10001000
# Time: 320.289us, present_state: 00111, command: 10111000
# Time: 320.356us, present_state: 00110, command: 10001000
# Time: 320.369us, present_state: 00111, command: 10111000
# Time: 320.436us, present_state: 00110, command: 10001000
# Time: 320.449us, present_state: 00111, command: 10111000
# Time: 320.516us, present_state: 00110, command: 10001000
# Time: 320.529us, present_state: 00111, command: 10111000
# Time: 320.596us, present_state: 00110, command: 10001000
# Time: 320.609us, present_state: 00111, command: 10111000
# Time: 320.676us, present_state: 00110, command: 10001000
# Time: 320.689us, present_state: 00111, command: 10111000
# Time: 320.756us, present_state: 00101, command: 1000000x
# Time: 320.769us, present_state: 00100, command: 10111000
# Time: 320.836us, present_state: 00000, command: 10111000
# Time: 320.849us, present_state: 01100, command: 10010001
# Time: 320.863us, present_state: 01101, command: 10111000
# Time: 320.876us, present_state: 01111, command: 10001000
# Time: 320.889us, present_state: 01110, command: 10111000
# Time: 320.903us, present_state: 00000, command: 10111000
# Time: 337.570us, present_state: 01100, command: 10010001
# Time: 337.584us, present_state: 01101, command: 10111000
# Time: 337.597us, present_state: 01111, command: 10001000
# Time: 337.610us, present_state: 01110, command: 10111000
# Time: 337.624us, present_state: 00000, command: 10111000
# Time: 354.291us, present_state: 01100, command: 10010001
# Time: 354.304us, present_state: 01101, command: 10111000
# Time: 354.318us, present_state: 01111, command: 10001000
# Time: 354.331us, present_state: 01110, command: 10111000
# Time: 354.344us, present_state: 00000, command: 10111000
# Time: 371.012us, present_state: 01100, command: 10010001
# Time: 371.025us, present_state: 01101, command: 10111000
# Time: 371.039us, present_state: 01111, command: 10001000
# Time: 371.052us, present_state: 01110, command: 10111000
# Time: 371.065us, present_state: 00000, command: 10111000
# Time: 387.733us, present_state: 01100, command: 10010001
# Time: 387.746us, present_state: 01101, command: 10111000
# Time: 387.759us, present_state: 01111, command: 10001000
# Time: 387.773us, present_state: 01110, command: 10111000
# Time: 387.786us, present_state: 00000, command: 10111000
# Time: 404.454us, present_state: 01100, command: 10010001
# Time: 404.467us, present_state: 01101, command: 10111000
# Time: 404.480us, present_state: 01111, command: 10001000
# Time: 404.494us, present_state: 01110, command: 10111000
# Time: 404.507us, present_state: 00000, command: 10111000
# Time: 421.174us, present_state: 01100, command: 10010001
# Time: 421.188us, present_state: 01101, command: 10111000
# Time: 421.201us, present_state: 01111, command: 10001000
# Time: 421.214us, present_state: 01110, command: 10111000
# Time: 421.228us, present_state: 00000, command: 10111000
# Time: 437.895us, present_state: 01100, command: 10010001
# Time: 437.909us, present_state: 01101, command: 10111000
# Time: 437.922us, present_state: 01111, command: 10001000
# Time: 437.935us, present_state: 01110, command: 10111000
# Time: 437.949us, present_state: 00000, command: 10111000
# Time: 454.616us, present_state: 01100, command: 10010001
# Time: 454.629us, present_state: 01101, command: 10111000
# Time: 454.643us, present_state: 01111, command: 10001000
# Time: 454.656us, present_state: 01110, command: 10111000
# Time: 454.669us, present_state: 00000, command: 10111000
# Time: 471.337us, present_state: 01100, command: 10010001
# Time: 471.350us, present_state: 01101, command: 10111000
# Time: 471.364us, present_state: 01111, command: 10001000
# Time: 471.377us, present_state: 01110, command: 10111000
# Time: 471.390us, present_state: 00000, command: 10111000
# Time: 488.058us, present_state: 01100, command: 10010001
# Time: 488.071us, present_state: 01101, command: 10111000
# Time: 488.084us, present_state: 01111, command: 10001000
# Time: 488.098us, present_state: 01110, command: 10111000
# Time: 488.111us, present_state: 00000, command: 10111000
# End time: 15:03:43 on Mar 30,2025, Elapsed time: 0:17:39
# Errors: 0, Warnings: 2
